%YAML 1.1
%TAG !u! tag:unity3d.com,2011:
--- !u!1045 &1
EditorBuildSettings:
  m_ObjectHideFlags: 0
  serializedVersion: 2
  m_Scenes:
  - enabled: 1
    path: Assets/Scenes/OpeningScene.unity
    guid: 81d960f2361b5e1429915f7a502fe720
  - enabled: 1
    path: Assets/Scenes/StartScene.unity
    guid: caddb3d88f3f82d4d80fa7a7e143be16
  m_configObjects: {}
